{
	"info": {
		"_postman_id": "5d9cb418-26a9-4846-924f-66ba5fcaa3b1",
		"name": "Python - Flask CiscoCollab",
		"schema": "https://schema.getpostman.com/json/collection/v2.1.0/collection.json"
	},
	"item": [
		{
			"name": "User",
			"item": [
				{
					"name": "User",
					"protocolProfileBehavior": {
						"disableBodyPruning": true
					},
					"request": {
						"auth": {
							"type": "noauth"
						},
						"method": "GET",
						"header": [
							{
								"key": "Content-Type",
								"name": "Content-Type",
								"value": "application/json",
								"type": "text"
							}
						],
						"body": {
							"mode": "raw",
							"raw": "{\n\t\"mmpHost\": \"{{mmpHost}}\",\n\t\"mmpPort\": \"{{mmpPort}}\",\n\t\"mmpUser\": \"{{mmpUser}}\",\n\t\"mmpPass\": \"{{mmpPass}}\",\n\t\"mmpVersion\": \"{{mmpVersion}}\",\n\t\"Customer\": \"{{Customer}}\",\n\t\"varUserid\": \"{{varUserid}}\"\n}",
							"options": {
								"raw": {
									"language": "json"
								}
							}
						},
						"url": {
							"raw": "http://{{ipaddress_flask}}:8443/api/v1/CUCM/User",
							"protocol": "http",
							"host": [
								"{{ipaddress_flask}}"
							],
							"port": "8443",
							"path": [
								"api",
								"v1",
								"CUCM",
								"User"
							]
						},
						"description": "Consulta Server"
					},
					"response": []
				}
			],
			"event": [
				{
					"listen": "prerequest",
					"script": {
						"id": "d1e702ed-7d38-4592-a536-a160e73dadd0",
						"type": "text/javascript",
						"exec": [
							""
						]
					}
				},
				{
					"listen": "test",
					"script": {
						"id": "4766d70f-6caf-4094-bfc1-ab0d0c9c7049",
						"type": "text/javascript",
						"exec": [
							""
						]
					}
				}
			],
			"protocolProfileBehavior": {}
		},
		{
			"name": "Translation Pattern",
			"item": [
				{
					"name": "Translation Pattern",
					"protocolProfileBehavior": {
						"disableBodyPruning": true
					},
					"request": {
						"auth": {
							"type": "noauth"
						},
						"method": "GET",
						"header": [
							{
								"key": "Content-Type",
								"name": "Content-Type",
								"type": "text",
								"value": "application/json"
							}
						],
						"body": {
							"mode": "raw",
							"raw": "{\n\t\"mmpHost\": \"{{mmpHost}}\",\n\t\"mmpPort\": \"{{mmpPort}}\",\n\t\"mmpUser\": \"{{mmpUser}}\",\n\t\"mmpPass\": \"{{mmpPass}}\",\n\t\"mmpVersion\": \"{{mmpVersion}}\",\n\t\"Customer\": \"{{Customer}}\",\n\t\"varPattern\": \"{{varPattern}}\",\n\t\"varroutePartitionName\": \"{{varroutePartitionName}}\"\n}",
							"options": {
								"raw": {
									"language": "json"
								}
							}
						},
						"url": {
							"raw": "http://{{ipaddress_flask}}:8443/api/v1/CUCM/TransPattern",
							"protocol": "http",
							"host": [
								"{{ipaddress_flask}}"
							],
							"port": "8443",
							"path": [
								"api",
								"v1",
								"CUCM",
								"TransPattern"
							]
						},
						"description": "Consulta Server"
					},
					"response": []
				}
			],
			"protocolProfileBehavior": {}
		}
	],
	"event": [
		{
			"listen": "prerequest",
			"script": {
				"id": "a4bf1e58-a6c3-4546-b59c-2c86bda5e08f",
				"type": "text/javascript",
				"exec": [
					""
				]
			}
		},
		{
			"listen": "test",
			"script": {
				"id": "f6878ee7-966d-4957-82bf-7085a9a1a462",
				"type": "text/javascript",
				"exec": [
					""
				]
			}
		}
	],
	"variable": [
		{
			"id": "ca1f8b68-67db-48de-86b6-a12d2663a0d7",
			"key": "mmpHost",
			"value": "127.0.0.1",
			"type": "string"
		}
	],
	"protocolProfileBehavior": {}
}