{
	"id": "2e2d935d-133d-4d05-92ae-c5490aa59053",
	"name": "Flask CiscoCollab - Template",
	"values": [
		{
			"key": "ipaddress_flask",
			"value": "127.0.0.1",
			"enabled": true
		},
		{
			"key": "mmpHost",
			"value": "vmcucmp01.contoso.com",
			"enabled": true
		},
		{
			"key": "mmpPort",
			"value": "8443",
			"enabled": true
		},
		{
			"key": "mmpUser",
			"value": "appcucm",
			"enabled": true
		},
		{
			"key": "mmpPass",
			"value": "password",
			"enabled": true
		},
		{
			"key": "Customer",
			"value": "Contoso",
			"enabled": true
		},
		{
			"key": "mmpVersion",
			"value": "11.5",
			"enabled": true
		},
		{
			"key": "varUserid",
			"value": "Userid",
			"enabled": true
		},
		{
			"key": "varPattern",
			"value": "1234567890",
			"enabled": true
		},
		{
			"key": "varroutePartitionName",
			"value": "Interna",
			"enabled": true
		}
	],
	"_postman_variable_scope": "environment",
	"_postman_exported_at": "2019-12-10T10:20:36.548Z",
	"_postman_exported_using": "Postman/7.13.0"
}